simulation/qsim/practika6.msim.vcd
$comment
	File created using the following command:
		vcd file practika6.msim.vcd -direction
$end
$date
	Sat Oct 07 14:40:39 2023
$end
$version
	ModelSim Version 10.1d
$end
$timescale
	1ps
$end
$scope module practika6_vlg_vec_tst $end
$var reg 1 ! a $end
$var reg 1 " b $end
$var reg 1 # clk $end
$var wire 1 $ q [3] $end
$var wire 1 % q [2] $end
$var wire 1 & q [1] $end
$var wire 1 ' q [0] $end
$var wire 1 ( sampler $end
$scope module i1 $end
$var wire 1 ) gnd $end
$var wire 1 * vcc $end
$var wire 1 + unknown $end
$var tri1 1 , devclrn $end
$var tri1 1 - devpor $end
$var tri1 1 . devoe $end
$var wire 1 / b~input_o $end
$var wire 1 0 q[3]~output_o $end
$var wire 1 1 q[2]~output_o $end
$var wire 1 2 q[1]~output_o $end
$var wire 1 3 q[0]~output_o $end
$var wire 1 4 clk~input_o $end
$var wire 1 5 clk~inputclkctrl_outclk $end
$var wire 1 6 a~input_o $end
$var wire 1 7 inst28~4_combout $end
$var wire 1 8 inst28~5_combout $end
$var wire 1 9 inst12~q $end
$var wire 1 : inst29~6_combout $end
$var wire 1 ; inst29~7_combout $end
$var wire 1 < inst14~q $end
$var wire 1 = inst26~3_combout $end
$var wire 1 > inst26~2_combout $end
$var wire 1 ? inst26~4_combout $end
$var wire 1 @ inst10~q $end
$var wire 1 A inst30~4_combout $end
$var wire 1 B inst30~5_combout $end
$var wire 1 C inst16~q $end
$upscope $end
$upscope $end
$enddefinitions $end
#0
$dumpvars
1!
1"
0#
0'
0&
0%
0$
x(
0)
1*
x+
1,
1-
1.
1/
00
01
02
03
04
05
16
17
18
09
0:
1;
0<
1=
1>
1?
0@
0A
1B
0C
$end
#10000
1#
14
15
0(
1C
1@
1<
19
1A
0>
0=
0;
1:
0B
10
13
11
12
1$
1'
1%
1&
1B
0?
#20000
0#
04
05
1(
#30000
1#
14
15
0(
0@
0<
0A
07
1;
03
01
0'
0%
#40000
0#
04
05
1(
#50000
1#
14
15
0(
1<
0B
0;
0:
11
1%
#60000
0#
04
05
1(
#70000
1#
14
15
0(
0C
0<
1>
1=
08
1B
00
01
0$
0%
1?
#80000
0#
04
05
1(
#90000
1#
14
15
0(
1C
1@
09
0B
10
13
02
1$
1'
0&
#100000
0#
04
05
1(
#110000
1#
14
15
0(
0C
1A
0>
0=
1;
00
0$
1B
0?
#120000
0#
04
05
1(
#130000
1#
14
15
0(
1C
0@
1<
0A
1>
0;
10
03
11
1$
0'
1%
0B
#140000
0#
04
05
1(
#150000
1#
14
15
0(
0C
0<
1=
1;
18
1B
17
00
01
0$
0%
1?
#160000
0#
04
05
1(
#170000
1#
14
15
0(
1C
1@
1<
19
1A
0>
0=
0;
1:
0B
10
13
11
12
1$
1'
1%
1&
1B
0?
#180000
0#
04
05
1(
#190000
1#
14
15
0(
0@
0<
0A
07
1;
03
01
0'
0%
#200000
0#
04
05
1(
#210000
1#
14
15
0(
1<
0B
0;
0:
11
1%
#220000
0#
04
05
1(
#230000
1#
14
15
0(
0C
0<
1>
1=
08
1B
00
01
0$
0%
1?
#240000
0#
04
05
1(
#250000
1#
14
15
0(
1C
1@
09
0B
10
13
02
1$
1'
0&
#260000
0#
04
05
1(
#270000
1#
14
15
0(
0C
1A
0>
0=
1;
00
0$
1B
0?
#280000
0#
04
05
1(
#290000
1#
14
15
0(
1C
0@
1<
0A
1>
0;
10
03
11
1$
0'
1%
0B
#300000
0#
04
05
1(
#310000
1#
14
15
0(
0C
0<
1=
1;
18
1B
17
00
01
0$
0%
1?
#320000
0#
04
05
1(
#330000
1#
14
15
0(
1C
1@
1<
19
1A
0>
0=
0;
1:
0B
10
13
11
12
1$
1'
1%
1&
1B
0?
#340000
0#
04
05
1(
#350000
1#
14
15
0(
0@
0<
0A
07
1;
03
01
0'
0%
#360000
0#
04
05
1(
#370000
1#
14
15
0(
1<
0B
0;
0:
11
1%
#380000
0#
04
05
1(
#390000
1#
14
15
0(
0C
0<
1>
1=
08
1B
00
01
0$
0%
1?
#400000
0#
04
05
1(
#410000
1#
14
15
0(
1C
1@
09
0B
10
13
02
1$
1'
0&
#420000
0#
04
05
1(
#430000
1#
14
15
0(
0C
1A
0>
0=
1;
00
0$
1B
0?
#440000
0#
04
05
1(
#450000
1#
14
15
0(
1C
0@
1<
0A
1>
0;
10
03
11
1$
0'
1%
0B
#460000
0#
04
05
1(
#470000
1#
14
15
0(
0C
0<
1=
1;
18
1B
17
00
01
0$
0%
1?
#480000
0#
04
05
1(
#490000
1#
14
15
0(
1C
1@
1<
19
1A
0>
0=
0;
1:
0B
10
13
11
12
1$
1'
1%
1&
1B
0?
#500000
0#
04
05
1(
#510000
1#
14
15
0(
0@
0<
0A
07
1;
03
01
0'
0%
#520000
0#
04
05
1(
#530000
1#
14
15
0(
1<
0B
0;
0:
11
1%
#540000
0#
04
05
1(
#550000
1#
14
15
0(
0C
0<
1>
1=
08
1B
00
01
0$
0%
1?
#560000
0#
04
05
1(
#570000
1#
14
15
0(
1C
1@
09
0B
10
13
02
1$
1'
0&
#580000
0#
04
05
1(
#590000
1#
14
15
0(
0C
1A
0>
0=
1;
00
0$
1B
0?
#600000
0#
04
05
1(
#610000
1#
14
15
0(
1C
0@
1<
0A
1>
0;
10
03
11
1$
0'
1%
0B
#620000
0#
04
05
1(
#630000
1#
14
15
0(
0C
0<
1=
1;
18
1B
17
00
01
0$
0%
1?
#640000
0#
04
05
1(
#650000
1#
14
15
0(
1C
1@
1<
19
1A
0>
0=
0;
1:
0B
10
13
11
12
1$
1'
1%
1&
1B
0?
#660000
0#
04
05
1(
#670000
1#
14
15
0(
0@
0<
0A
07
1;
03
01
0'
0%
#680000
0#
04
05
1(
#690000
1#
14
15
0(
1<
0B
0;
0:
11
1%
#700000
0#
04
05
1(
#710000
1#
14
15
0(
0C
0<
1>
1=
08
1B
00
01
0$
0%
1?
#720000
0#
04
05
1(
#730000
1#
14
15
0(
1C
1@
09
0B
10
13
02
1$
1'
0&
#740000
0#
04
05
1(
#750000
1#
14
15
0(
0C
1A
0>
0=
1;
00
0$
1B
0?
#760000
0#
04
05
1(
#770000
1#
14
15
0(
1C
0@
1<
0A
1>
0;
10
03
11
1$
0'
1%
0B
#780000
0#
04
05
1(
#790000
1#
14
15
0(
0C
0<
1=
1;
18
1B
17
00
01
0$
0%
1?
#800000
0#
04
05
1(
#810000
1#
14
15
0(
1C
1@
1<
19
1A
0>
0=
0;
1:
0B
10
13
11
12
1$
1'
1%
1&
1B
0?
#820000
0#
04
05
1(
#830000
1#
14
15
0(
0@
0<
0A
07
1;
03
01
0'
0%
#840000
0#
04
05
1(
#850000
1#
14
15
0(
1<
0B
0;
0:
11
1%
#860000
0#
04
05
1(
#870000
1#
14
15
0(
0C
0<
1>
1=
08
1B
00
01
0$
0%
1?
#880000
0#
04
05
1(
#890000
1#
14
15
0(
1C
1@
09
0B
10
13
02
1$
1'
0&
#900000
0#
04
05
1(
#910000
1#
14
15
0(
0C
1A
0>
0=
1;
00
0$
1B
0?
#920000
0#
04
05
1(
#930000
1#
14
15
0(
1C
0@
1<
0A
1>
0;
10
03
11
1$
0'
1%
0B
#940000
0#
04
05
1(
#950000
1#
14
15
0(
0C
0<
1=
1;
18
1B
17
00
01
0$
0%
1?
#960000
0#
04
05
1(
#970000
1#
14
15
0(
1C
1@
1<
19
1A
0>
0=
0;
1:
0B
10
13
11
12
1$
1'
1%
1&
1B
0?
#980000
0#
04
05
1(
#990000
1#
14
15
0(
0@
0<
0A
07
1;
03
01
0'
0%
